{
	sortByHue:true,
	spriteLayerImage:true,
	paletteRegions  :{
		BODY:{
			name               :"Body",
			representativeIndex:9,
			indices            :[0,9]
		},
		TAIL:{
			name               :"Tail",
			representativeIndex:11,
			indices            :[10,11]
		},
		EYES:{
			name               :"Eyes",
			representativeIndex:3,
			indices            :[3]
		},
		OUTLINE:{
			name               :"Outline",
			representativeIndex:7,
			indices            :[1,2,4,6,7]
		},
		FEET_EARS:{
			name               :"Feet & Ears",
			representativeIndex:5,
			indices            :[5]
		},
		NOSE:{
			name               :"Nose",
			representativeIndex:8,
			indices            :[8]
		}
	},
	presetPalettes:{
		BODY:[
			{
				name   :"White"
			}
		],
		TAIL:[
			{
				name   :"Purple"
			}
		],
		EYES:[
			{
				name   :"Red"
			}
		],
		OUTLINE:[
			{
				name   :"Brown"
			}
		],
		FEET_EARS:[
			{
				name   :"Pink"
			}
		],
		NOSE:[
			{
				name   :"Black"
			}
		]
	}
}