{
	name           :"Rat",
	defaultFrameSet:"idleDown",
	shadow         :"SHADOW",
	portrait       :{
		frameSet:"idleRight",
		frame   :{w: 128, h: 64, y: -8, x: -56}
	},
	frameSets      :{
		idleDown   :
		{
			fps        :1,
			hitBox     :{x:24,y:16,w:15,h:24},
			baseOffset :{x:32,y:20},
			labelOffset:{x:32,y:-24},
			frameRegion:{w:64,h:32},
			effectsOffset:{x:  0,y:-5},
			frames     :[{x:0,y:0}]
		},
		idleUp     :
		{
			fps        :1,
			hitBox     :{x:24,y:5,w:15,h:19},
			baseOffset :{x:32,y:20},
			labelOffset:{x:32,y:-24},
			frameRegion:{w:64,h:32},
			effectsOffset:{x:  0,y:-5},
			frames     :[{x:0,y:96}]
		},
		idleRight  :
		{
			fps        :1,
			hitBox     :{x:22,y:7,w:25,h:15},
			baseOffset :{x:32,y:20},
			labelOffset:{x:32,y:-24},
			frameRegion:{w:64,h:32},
			effectsOffset:{x:  0,y:-5},
			frames     :[{x:0,y:32}]
		},
		idleLeft   :
		{
			fps        :1,
			hitBox     :{x:17,y:7,w:25,h:15},
			baseOffset :{x:32,y:20},
			labelOffset:{x:32,y:-24},
			frameRegion:{w:64,h:32},
			effectsOffset:{x:  0,y:-5},
			frames     :[{x:0,y:64}]
		},
		
		meleeDown   :
		{
			fps        :6,
			hitBox     :{x:24,y:16,w:15,h:24},
			baseOffset :{x:32,y:20},
			labelOffset:{x:32,y:-24},
			frameRegion:{w:64,h:32},
			effectsOffset:{x:  0,y:-5},
			frames     :[{x:0,y:0},{x:64,y:0},{x:128,y:0},{x:192,y:0}]
		},
		meleeUp     :
		{
			fps        :6,
			hitBox     :{x:24,y:5,w:15,h:19},
			baseOffset :{x:32,y:20},
			labelOffset:{x:32,y:-24},
			frameRegion:{w:64,h:32},
			effectsOffset:{x:  0,y:-5},
			frames     :[{x:0,y:96},{x:64,y:96},{x:128,y:96},{x:192,y:96}]
		},
		meleeRight  :
		{
			fps        :10,
			hitBox     :{x:22,y:7,w:25,h:15},
			baseOffset :{x:32,y:20},
			labelOffset:{x:32,y:-24},
			frameRegion:{w:64,h:32},
			effectsOffset:{x:  0,y:-5},
			frames     :[{x:0,y:32},{x:64,y:32},{x:128,y:32},{x:192,y:32}]
		},
		meleeLeft   :
		{
			fps        :10,
			hitBox     :{x:17,y:7,w:25,h:15},
			baseOffset :{x:32,y:20},
			labelOffset:{x:32,y:-24},
			frameRegion:{w:64,h:32},
			effectsOffset:{x:  0,y:-5},
			frames     :[{x:0,y:64},{x:64,y:64},{x:128,y:64},{x:192,y:64}]
		},
		
		walkDown   :
		{
			fps        :6,
			hitBox     :{x:24,y:16,w:15,h:24},
			baseOffset :{x:32,y:20},
			labelOffset:{x:32,y:-24},
			frameRegion:{w:64,h:32},
			effectsOffset:{x:  0,y:-5},
			frames     :[{x:0,y:0},{x:64,y:0},{x:128,y:0},{x:192,y:0}]
		},
		walkUp     :
		{
			fps        :6,
			hitBox     :{x:24,y:5,w:15,h:19},
			baseOffset :{x:32,y:20},
			labelOffset:{x:32,y:-24},
			frameRegion:{w:64,h:32},
			effectsOffset:{x:  0,y:-5},
			frames     :[{x:0,y:96},{x:64,y:96},{x:128,y:96},{x:192,y:96}]
		},
		walkRight  :
		{
			fps        :10,
			hitBox     :{x:22,y:7,w:25,h:15},
			baseOffset :{x:32,y:20},
			labelOffset:{x:32,y:-24},
			frameRegion:{w:64,h:32},
			effectsOffset:{x:  0,y:-5},
			frames     :[{x:0,y:32},{x:64,y:32},{x:128,y:32},{x:192,y:32}]
		},
		walkLeft   :
		{
			fps        :10,
			hitBox     :{x:17,y:7,w:25,h:15},
			baseOffset :{x:32,y:20},
			labelOffset:{x:32,y:-24},
			frameRegion:{w:64,h:32},
			effectsOffset:{x:  0,y:-5},
			frames     :[{x:0,y:64},{x:64,y:64},{x:128,y:64},{x:192,y:64}]
		},
		
		die        :
		{
			fps        :1,
			hitBox     :{x:23,y:9,w:17,h:20},
			baseOffset :{x:32,y:20},
			labelOffset:{x:32,y:-24},
			frameRegion:{w:64,h:32},
			effectsOffset:{x:  0,y:-5},
			frames     :[{x:0,y:128}]
		},
		dead        :
		{
			fps        :1,
			hitBox     :{x:23,y:9,w:17,h:20},
			baseOffset :{x:32,y:20},
			labelOffset:{x:32,y:-24},
			frameRegion:{w:64,h:32},
			effectsOffset:{x:  0,y:-5},
			frames     :[{x:0,y:128}]
		}
	},
	baseSprite:"SPRITE.ANIMAL.RAT",
	baseAppearance:{
		"layers":{
	    	"BASE":{index:0}
		}
	},
	layers    :[
		{
			id         :"BASE",
			name       :"Body",
			isInherent :true,
			isBaseLayer:true,
			options    :[
				{
					name :"Default",
					image:"BASE"
				}
			]
		}
	]
}