{
	name           :"Air / Dispel",
	defaultFrameSet:"base",
	frameSets      :{
		base       :
		{
			fps        :8,
			baseOffset :{x:32,y:33},
			frameRegion:{w:64,h:64},
			frames     :[
			    {x:  0,y:  0},{x: 64,y:  0},{x:128,y:  0},{x:192,y:  0},
			    {x:256,y:  0},{x:320,y:  0},{x:384,y:  0},{x:448,y:  0}
			]
		}
	},
	baseSprite:"SPRITE.EFFECTS.AIR.DISPEL.BASE"
}