{
	spriteLayerImage:true,
	paletteRegions  :{
		CLOTH:{
			name               :"Cloth",
			representativeIndex:3,
			indices            :[0,1,2,3,4,5,6]
		}
	},
	presetPalettes:{
		CLOTH:[
			{
				name   :"Roughspun"
			}
		]
	}
}