{
	spriteLayerImage:true,
	paletteRegions  :{
		PLATE:{
			name               :"Plate",
			representativeIndex:8,
			indices            :[0,1,2,3,4,5,6,7,8,9,10,11,12]
		}
	},
	presetPalettes:{
		PLATE:[
			{
				name   :"Steel"
			}
		]
	}
}