{
	spriteLayerImage:true,
	paletteRegions  :{
		HAIR:{
			name               :"Hair",
			representativeIndex:3,
			indices            :[0,1,2,3,4]
		}
	},
	presetPalettes:{
		HAIR:[
			{
				name   :"Blond"
			},
			{
                    "name": "Red",
                    "palette": [
                        {
                            "g": 15,
                            "b": 15,
                            "r": 120,
                            "a": 255
                        },
                        {
                            "g": 7,
                            "b": 7,
                            "r": 57,
                            "a": 255
                        },
                        {
                            "g": 170,
                            "b": 170,
                            "r": 255,
                            "a": 255
                        },
                        {
                            "g": 41,
                            "b": 41,
                            "r": 229,
                            "a": 255
                        },
                        {
                            "g": 22,
                            "b": 22,
                            "r": 178,
                            "a": 255
                        }
                    ]
                },
                {
                    "name": "Green",
                    "palette": [
                        {
                            "g": 120,
                            "b": 15,
                            "r": 43,
                            "a": 255
                        },
                        {
                            "g": 57,
                            "b": 7,
                            "r": 21,
                            "a": 255
                        },
                        {
                            "g": 255,
                            "b": 170,
                            "r": 193,
                            "a": 255
                        },
                        {
                            "g": 229,
                            "b": 41,
                            "r": 92,
                            "a": 255
                        },
                        {
                            "g": 178,
                            "b": 22,
                            "r": 64,
                            "a": 255
                        }
                    ]
                },
                {
                    "name": "Blue",
                    "palette": [
                        {
                            "g": 87,
                            "b": 120,
                            "r": 15,
                            "a": 255
                        },
                        {
                            "g": 41,
                            "b": 57,
                            "r": 7,
                            "a": 255
                        },
                        {
                            "g": 228,
                            "b": 255,
                            "r": 170,
                            "a": 255
                        },
                        {
                            "g": 169,
                            "b": 229,
                            "r": 41,
                            "a": 255
                        },
                        {
                            "g": 128,
                            "b": 178,
                            "r": 22,
                            "a": 255
                        }
                    ]
                },
                {
                    "name": "Violet",
                    "palette": [
                        {
                            "g": 15,
                            "b": 120,
                            "r": 90,
                            "a": 255
                        },
                        {
                            "g": 7,
                            "b": 57,
                            "r": 43,
                            "a": 255
                        },
                        {
                            "g": 170,
                            "b": 255,
                            "r": 231,
                            "a": 255
                        },
                        {
                            "g": 41,
                            "b": 229,
                            "r": 176,
                            "a": 255
                        },
                        {
                            "g": 22,
                            "b": 178,
                            "r": 134,
                            "a": 255
                        }
                    ]
                },
                {
                    "name": "Golden",
                    "palette": [
                        {
                            "g": 81,
                            "b": 15,
                            "r": 120,
                            "a": 255
                        },
                        {
                            "g": 39,
                            "b": 7,
                            "r": 57,
                            "a": 255
                        },
                        {
                            "g": 224,
                            "b": 170,
                            "r": 255,
                            "a": 255
                        },
                        {
                            "g": 160,
                            "b": 41,
                            "r": 229,
                            "a": 255
                        },
                        {
                            "g": 121,
                            "b": 22,
                            "r": 178,
                            "a": 255
                        }
                    ]
                }
		]
	}
}