{
	name           :"Snowman",
	defaultFrameSet:"idleDown",
	shadow         :"SHADOW",
	portrait       :{
		frameSet:"idleRight",
		frame   :{x:-12,y:  2,w: 64,h: 64}
	},
	frameSets      :{
		idleDown   :
		{
			fps        :5,
			hitBox     :{x:18,y:13,w:25,h:52},
			baseOffset :{x:32,y:60},
			labelOffset:{x:32,y:-16},
			effectsOffset:{x:  0,y:-19},
			frameRegion:{w:64,h:64},
			frames     :[{x:512,y:0},{x:576,y:0},{x:640,y:0},{x:704,y:0},{x:768,y:0},{x:832,y:0}]
		},
		idleUp     :
		{
			fps        :5,
			hitBox     :{x:18,y:13,w:25,h:52},
			baseOffset :{x:32,y:60},
			labelOffset:{x:32,y:-16},
			effectsOffset:{x:  0,y:-19},
			frameRegion:{w:64,h:64},
			frames     :[{x:512,y:64},{x:576,y:64},{x:640,y:64},{x:704,y:64},{x:768,y:64},{x:832,y:64}]
		},
		idleRight  :
		{
			fps        :5,
			hitBox     :{x:18,y:13,w:25,h:52},
			baseOffset :{x:32,y:60},
			labelOffset:{x:32,y:-16},
			effectsOffset:{x:  0,y:-19},
			frameRegion:{w:64,h:64},
			frames     :[{x:512,y:128},{x:576,y:128},{x:640,y:128},{x:704,y:128},{x:768,y:128},{x:832,y:128}]
		},
		idleLeft   :
		{
			fps        :5,
			hitBox     :{x:18,y:13,w:25,h:52},
			baseOffset :{x:32,y:60},
			labelOffset:{x:32,y:-16},
			effectsOffset:{x:  0,y:-19},
			frameRegion:{w:64,h:64},
			frames     :[{x:512,y:192},{x:576,y:192},{x:640,y:192},{x:704,y:192},{x:768,y:192},{x:832,y:192}]
		},
		
		walkDown   :
		{
			fps        :6,
			hitBox     :{x:18,y:13,w:25,h:52},
			baseOffset :{x:32,y:60},
			labelOffset:{x:32,y:-16},
			effectsOffset:{x:  0,y:-19},
			frameRegion:{w:64,h:64},
			frames     :[{x:0,y:0},{x:64,y:0},{x:128,y:0},{x:192,y:0}]
		},
		walkUp     :
		{
			fps        :6,
			hitBox     :{x:18,y:13,w:25,h:52},
			baseOffset :{x:32,y:60},
			labelOffset:{x:32,y:-16},
			effectsOffset:{x:  0,y:-19},
			frameRegion:{w:64,h:64},
			frames     :[{x:0,y:64},{x:64,y:64},{x:128,y:64},{x:192,y:64}]
		},
		walkRight  :
		{
			fps        :10,
			hitBox     :{x:18,y:13,w:25,h:52},
			baseOffset :{x:32,y:60},
			labelOffset:{x:32,y:-16},
			effectsOffset:{x:  0,y:-19},
			frameRegion:{w:64,h:64},
			frames     :[{x:0,y:128},{x:64,y:128},{x:128,y:128},{x:192,y:128}]
		},
		walkLeft   :
		{
			fps        :10,
			hitBox     :{x:18,y:13,w:25,h:52},
			baseOffset :{x:32,y:60},
			labelOffset:{x:32,y:-16},
			effectsOffset:{x:  0,y:-19},
			frameRegion:{w:64,h:64},
			frames     :[{x:0,y:192},{x:64,y:192},{x:128,y:192},{x:192,y:192}]
		},
		
		meleeDown  :
		{
			fps        :10,
			hitBox     :{x:42,y:27,w:25,h:52},
			baseOffset :{x:58,y:77},
			labelOffset:{x:58,y:1},
			effectsOffset:{x:  0,y:-19},
			frameRegion:{w:128,h:96},
			frames     :[{x:0,y:256},{x:128,y:256},{x:256,y:256},{x:384,y:256}]
		},
		meleeUp    :
		{
			fps        :10,
			hitBox     :{x:42,y:27,w:25,h:52},
			baseOffset :{x:57,y:76},
			labelOffset:{x:57,y:0},
			effectsOffset:{x:  0,y:-19},
			frameRegion:{w:128,h:96},
			frames     :[{x:0,y:352},{x:128,y:352},{x:256,y:352},{x:384,y:352}]
		},
		meleeRight :
		{
			fps        :10,
			hitBox     :{x:42,y:27,w:25,h:52},
			baseOffset :{x:68,y:82},
			labelOffset:{x:68,y:6},
			effectsOffset:{x:  0,y:-19},
			frameRegion:{w:128,h:96},
			frames     :[{x:0,y:448},{x:128,y:448},{x:256,y:448},{x:384,y:448}]
		},
		meleeLeft  :
		{
			fps        :10,
			hitBox     :{x:42,y:27,w:25,h:52},
			baseOffset :{x:58,y:82},
			labelOffset:{x:58,y:6},
			effectsOffset:{x:  0,y:-19},
			frameRegion:{w:128,h:96},
			frames     :[{x:0,y:544},{x:128,y:544},{x:256,y:544},{x:384,y:544}]
		},
		
		rangeDown  :
		{
			fps        :10,
			hitBox     :{x:18,y:13,w:25,h:52},
			baseOffset :{x:32,y:60},
			labelOffset:{x:32,y:-16},
			effectsOffset:{x:  0,y:-19},
			frameRegion:{w:64,h:64},
			frames     :[{x:256,y:0},{x:320,y:0},{x:384,y:0},{x:448,y:0}]
		},
		rangeUp    :
		{
			fps        :10,
			hitBox     :{x:18,y:13,w:25,h:52},
			baseOffset :{x:32,y:60},
			labelOffset:{x:32,y:-16},
			effectsOffset:{x:  0,y:-19},
			frameRegion:{w:64,h:64},
			frames     :[{x:256,y:64},{x:320,y:64},{x:384,y:64},{x:448,y:64}]
		},
		rangeRight :
		{
			fps        :10,
			hitBox     :{x:18,y:13,w:25,h:52},
			baseOffset :{x:32,y:60},
			labelOffset:{x:32,y:-16},
			effectsOffset:{x:  0,y:-19},
			frameRegion:{w:64,h:64},
			frames     :[{x:256,y:128},{x:320,y:128},{x:384,y:128},{x:448,y:128}]
		},
		rangeLeft  :
		{
			fps        :10,
			hitBox     :{x:18,y:13,w:25,h:52},
			baseOffset :{x:32,y:60},
			labelOffset:{x:32,y:-16},
			effectsOffset:{x:  0,y:-19},
			frameRegion:{w:64,h:64},
			frames     :[{x:256,y:192},{x:320,y:192},{x:384,y:192},{x:448,y:192}]
		},
		
		dCastDown  :
		{
			fps        :10,
			hitBox     :{x:18,y:13,w:25,h:52},
			baseOffset :{x:32,y:60},
			labelOffset:{x:32,y:-16},
			effectsOffset:{x:  0,y:-19},
			frameRegion:{w:64,h:64},
			frames     :[{x:256,y:640},{x:320,y:640},{x:384,y:640},{x:448,y:640}]
		},
		dCastUp    :
		{
			fps        :10,
			hitBox     :{x:18,y:13,w:25,h:52},
			baseOffset :{x:32,y:60},
			labelOffset:{x:32,y:-16},
			effectsOffset:{x:  0,y:-19},
			frameRegion:{w:64,h:64},
			frames     :[{x:256,y:704},{x:320,y:704},{x:384,y:704},{x:448,y:704}]
		},
		dCastRight :
		{
			fps        :10,
			hitBox     :{x:18,y:13,w:25,h:52},
			baseOffset :{x:32,y:60},
			labelOffset:{x:32,y:-16},
			effectsOffset:{x:  0,y:-19},
			frameRegion:{w:64,h:64},
			frames     :[{x:256,y:768},{x:320,y:768},{x:384,y:768},{x:448,y:768}]
		},
		dCastLeft  :
		{
			fps        :10,
			hitBox     :{x:18,y:13,w:25,h:52},
			baseOffset :{x:32,y:60},
			labelOffset:{x:32,y:-16},
			effectsOffset:{x:  0,y:-19},
			frameRegion:{w:64,h:64},
			frames     :[{x:256,y:832},{x:320,y:832},{x:384,y:832},{x:448,y:832}]
		},
		
		oCastDown  :
		{
			fps        :10,
			hitBox     :{x:18,y:13,w:25,h:52},
			baseOffset :{x:32,y:60},
			labelOffset:{x:32,y:-16},
			effectsOffset:{x:  0,y:-19},
			frameRegion:{w:64,h:64},
			frames     :[{x:0,y:640},{x:64,y:640},{x:128,y:640},{x:192,y:640}]
		},
		oCastUp    :
		{
			fps        :10,
			hitBox     :{x:18,y:13,w:25,h:52},
			baseOffset :{x:32,y:60},
			labelOffset:{x:32,y:-16},
			effectsOffset:{x:  0,y:-19},
			frameRegion:{w:64,h:64},
			frames     :[{x:0,y:704},{x:64,y:704},{x:128,y:704},{x:192,y:704}]
		},
		oCastRight :
		{
			fps        :10,
			hitBox     :{x:18,y:13,w:25,h:52},
			baseOffset :{x:32,y:60},
			labelOffset:{x:32,y:-16},
			effectsOffset:{x:  0,y:-19},
			frameRegion:{w:64,h:64},
			frames     :[{x:0,y:768},{x:64,y:768},{x:128,y:768},{x:192,y:768}]
		},
		oCastLeft  :
		{
			fps        :10,
			hitBox     :{x:18,y:13,w:25,h:52},
			baseOffset :{x:32,y:60},
			labelOffset:{x:32,y:-16},
			effectsOffset:{x:  0,y:-19},
			frameRegion:{w:64,h:64},
			frames     :[{x:0,y:832},{x:64,y:832},{x:128,y:832},{x:192,y:832}]
		},
		
		toolDown   :
		{
			fps        :10,
			hitBox     :{x:18,y:13,w:25,h:52},
			baseOffset :{x:32,y:60},
			labelOffset:{x:32,y:-16},
			effectsOffset:{x:  0,y:-19},
			frameRegion:{w:64,h:64},
			frames     :[{x:512,y:256},{x:576,y:256},{x:640,y:256},{x:704,y:256}]
		},
		toolUp     :
		{
			fps        :10,
			hitBox     :{x:18,y:13,w:25,h:52},
			baseOffset :{x:32,y:60},
			labelOffset:{x:32,y:-16},
			effectsOffset:{x:  0,y:-19},
			frameRegion:{w:64,h:64},
			frames     :[{x:512,y:320},{x:576,y:320},{x:640,y:320},{x:704,y:320}]
		},
		toolRight  :
		{
			fps        :10,
			hitBox     :{x:18,y:13,w:25,h:52},
			baseOffset :{x:32,y:60},
			labelOffset:{x:32,y:-16},
			effectsOffset:{x:  0,y:-19},
			frameRegion:{w:64,h:64},
			frames     :[{x:512,y:384},{x:576,y:384},{x:640,y:384},{x:704,y:384}]
		},
		toolLeft   :
		{
			fps        :10,
			hitBox     :{x:18,y:13,w:25,h:52},
			baseOffset :{x:32,y:60},
			labelOffset:{x:32,y:-16},
			effectsOffset:{x:  0,y:-19},
			frameRegion:{w:64,h:64},
			frames     :[{x:512,y:448},{x:576,y:448},{x:640,y:448},{x:704,y:448}]
		},
		
		die        :
		{
			fps        :5,
			hitBox     :{x:18,y:13,w:25,h:52},
			baseOffset :{x:32,y:60},
			labelOffset:{x:32,y:-16},
			effectsOffset:{x:  0,y:-26},
			frameRegion:{w:64,h:64},
			frames     :[{x:0,y:896},{x:64,y:896},{x:128,y:896}]
		},
		dead      :
		{
			fps        :1,
			hitBox     :{x:18,y:13,w:25,h:52},
			baseOffset :{x:32,y:60},
			labelOffset:{x:32,y:-16},
			effectsOffset:{x:  0,y:-26},
			frameRegion:{w:64,h:64},
			frames     :[{x:192,y:896}]
		}
	},
	baseSprite:"SPRITE.SNOWMAN",
	baseAppearance:{
		"layers":{
	    	"BASE":{index:0}
		}
	},
	layers    :[
		{
			id        :"ACTION.AFT",
			name      :"Action Underlay"
		},
		{
			id         :"BASE",
			name       :"Body",
			isInherent :true,
			isBaseLayer:true,
			options    :[
				{
					name :"Default",
					image:"BASE"
				}
			]
		},
		{
			id        :"ACTION.FORE",
			name      :"Action Overlay"
		}
	]
}