{
	name           :"Chick",
	defaultFrameSet:"idleDown",
	shadow         :"SHADOW",
	portrait       :{
		frameSet:"idleRight",
		frame   :{x:  8,y:  8,w: 16,h: 16}
	},
	frameSets      :{
		idleDown   :
		{
			fps        :5,
			hitBox     :{x:3,y:6,w:11,h:10},
			baseOffset :{x:8,y:16},
			labelOffset:{x:8,y:-16},
			frameRegion:{w:16,h:16},
			effectsOffset:{x:  0,y:-5},
			frames     :[{x:64,y:0},{x:80,y:0},{x:96,y:0},{x:112,y:0}]
		},
		idleUp     :
		{
			fps        :5,
			hitBox     :{x:3,y:6,w:11,h:10},
			baseOffset :{x:8,y:16},
			labelOffset:{x:8,y:-16},
			frameRegion:{w:16,h:16},
			effectsOffset:{x:  0,y:-5},
			frames     :[{x:64,y:48},{x:80,y:48},{x:96,y:48},{x:112,y:48}]
		},
		idleRight  :
		{
			fps        :5,
			hitBox     :{x:3,y:6,w:11,h:10},
			baseOffset :{x:8,y:16},
			labelOffset:{x:8,y:-16},
			frameRegion:{w:16,h:16},
			effectsOffset:{x:  0,y:-5},
			frames     :[{x:64,y:16},{x:80,y:16},{x:96,y:16},{x:112,y:16}]
		},
		idleLeft   :
		{
			fps        :5,
			hitBox     :{x:3,y:6,w:11,h:10},
			baseOffset :{x:8,y:16},
			labelOffset:{x:8,y:-16},
			frameRegion:{w:16,h:16},
			effectsOffset:{x:  0,y:-5},
			frames     :[{x:64,y:32},{x:80,y:32},{x:96,y:32},{x:112,y:32}]
		},
		
		walkDown   :
		{
			fps        :6,
			hitBox     :{x:3,y:6,w:11,h:10},
			baseOffset :{x:8,y:16},
			labelOffset:{x:8,y:-16},
			frameRegion:{w:16,h:16},
			effectsOffset:{x:  0,y:-5},
			frames     :[{x:0,y:0},{x:16,y:0},{x:32,y:0},{x:48,y:0}]
		},
		walkUp     :
		{
			fps        :6,
			hitBox     :{x:3,y:6,w:11,h:10},
			baseOffset :{x:8,y:16},
			labelOffset:{x:8,y:-16},
			frameRegion:{w:16,h:16},
			effectsOffset:{x:  0,y:-5},
			frames     :[{x:0,y:48},{x:16,y:48},{x:32,y:48},{x:48,y:48}]
		},
		walkRight  :
		{
			fps        :10,
			hitBox     :{x:3,y:6,w:11,h:10},
			baseOffset :{x:8,y:16},
			labelOffset:{x:8,y:-16},
			frameRegion:{w:16,h:16},
			effectsOffset:{x:  0,y:-5},
			frames     :[{x:0,y:16},{x:16,y:16},{x:32,y:16},{x:48,y:16}]
		},
		walkLeft   :
		{
			fps        :10,
			hitBox     :{x:3,y:6,w:11,h:10},
			baseOffset :{x:8,y:16},
			labelOffset:{x:8,y:-16},
			frameRegion:{w:16,h:16},
			effectsOffset:{x:  0,y:-5},
			frames     :[{x:0,y:32},{x:16,y:32},{x:32,y:32},{x:48,y:32}]
		},
		
		die        :
		{
			fps        :1,
			hitBox     :{x:3,y:6,w:11,h:10},
			baseOffset :{x:8,y:16},
			labelOffset:{x:8,y:-16},
			frameRegion:{w:16,h:16},
			effectsOffset:{x:  0,y:-5},
			frames     :[{x:0,y:64}]
		},
		dead        :
		{
			fps        :1,
			hitBox     :{x:3,y:6,w:11,h:10},
			baseOffset :{x:8,y:16},
			labelOffset:{x:8,y:-16},
			frameRegion:{w:16,h:16},
			effectsOffset:{x:  0,y:-5},
			frames     :[{x:0,y:64}]
		}
	},
	baseSprite:"SPRITE.ANIMAL.CHICKEN.BABY",
	baseAppearance:{
		"layers":{
	    	"BASE":{index:0}
		}
	},
	layers    :[
		{
			id         :"BASE",
			name       :"Body",
			isInherent :true,
			isBaseLayer:true,
			options    :[
				{
					name :"Default",
					image:"BASE"
				}
			]
		}
	]
}